yorum,Positivity
çok teşekkür ederim çok yardımcı oldun,1
çok sağol,1
çok iyisin ingo,1
süpersin,1
kolay gelsin iyi aksamlar,1
teşekkür ederim ,1
teşekkürler,1
love,1
teşekkürler,1
sizede tsklr,1
çok tatlısın,1
komiksin,1
eğlencelisin ha,1
çok yardımcı oldun çok sağol,1
çok başarılısınız,1
süpersiniz,1
bankacılık budur,1
çok zekisin,1
eyvallah bro,1
oo reis cok hizlisin eyvallah,1
kardom mükemmelsin,1
helal olsun,1
çok memnun kaldım,1
çok mutlu oldum,1
mutlu ettiniz teşekkürler,1
reis süpersin,1
knki çok sağol,1
teşekkür ederim,1
en iyi banka sizsiniz,1
aslansın,1
süper bankasınız,1
adamsın,1
allah razı olsun çok yardımcı oldun,1
nasil kredi alabilirim sizinle çalişmak istiyorum,1
nasıl müşteri olurum,1
nasıl müşteriniz olurum,1
müşteriniz olmak istiyorum,1
müşteri olmak için ne yapmalıyım,1
müşteriniz olmak için ne yapmalıyım,1
sizin müşteriniz olmicam da kimin müşteris olcam,1
sizin müşteriniz olmayacağım da kimin müşterisi olacağım,1
sizinle çaşılmak istiyorum,1
birlikte çalışalım,1
gelin beraber çalışalım,1
ingocum çok teşekkürler,1
cansın can,1
ingocum sağol,1
çok teşekkürler,1
süper,1
harika,1
tam bi inglisin,1
seni seviyorum,1
memnunum,1
sizden memnunun,1
allaha emanet ol,1
maşallah,1
yuppi,1
aeo,1
oley,1
holley,1
olley,1
efsane,1
efffsaaaneeee,1
efso,1
kaplansın,1
kredim onaylandı teşekkür ederim,1
kredim onaylandı çok teşekkür ederim,1
kredim onaylandı çok sağolun,1
kredi kartı başvurum onaylandı çok teşekkürler,1
kartım geldi çok teşekkür ederim,1
kartım geldi çok sağolun,1
mevuat faizlerinin çok iyi,1
hoş geldin faizinin çok iyi,1
bu ay ek faiz aldım çok iyi geldi,1
hoşgeldin faizini çok seviyorum,1
ne kadar akıllısın,1
şimdi ben hesap açmak istiyorum sizin bankanızda,1
hesap açmak istiyorum,1
nasıl e turuncu hesap açabilirim,1
pegasus kart istiyorum,1
pegasus card istiyorum,1
pegasus classic card istiyorum,1
pegasus klasik kart istiyorum,1
pegasus classic kart istiyorum,1
pegasus premium kart istiyorum,1
pegasu premium card istiyorum,1
müşteri olmak istiyorum,1
nasıl müşteriniz olacağım,1
kredi kullanmak istiyorum,1
ev kredisi istiyorum,1
e turuncu hesap açmak istiyorum,1
turuncu hesap açmak istiyorum,1
e turuncu hesap istiyorum,1
turuncu hesap istiyorum,1
turuncu ekstra istiyorum,1
turuncu ekstra kart almak istiyorum,1
turncu ekstra kart nasıl alırım,1
bankanızdan çok memnunum,1
sizinle çalışmak çok güzel,1
sizinle çalışmak istiyorum,1
kobiyim pos istiyorum,1
kobiyim sizinle çalışmak istiyorum,1
emekliyim maaşımı sizden almak istiyorum,1
aylığımı sizden almak istiyorum,1
emekli aylığımı sizden almak istiyorum,1
sigorta istiyorum,1
sigorta yaptırmak istiyorum,1
vadeli hesap açmak istiyorum,1
merhabalar,1
merabalar,1
selamlar,1
merhabalar nasılsın,1
merhabalar nasılsınız,1
merabalar nasılsın,1
merhabalar nasılsın,1
selamlar nasılsın,1
selamlar nasılsınız,1
iyi günler,1
iyi akşamlar,1
günaydın,1
günaydınlar,1
kolay gelsin iyi aksamlar,1
hayırlı işler,1
allah işini rast geitrsin,1
allah bereket versin,1
iyi ki doğdun ingo,1
iyi ki doğdun,1
şube çalışanlarınızdan çok memnunum,1
bankacılık budur,1
yapay zeka budur,1
seni çok iyi yapmışlar,1
çok akıllısın,1
çok iyisin,1
mevduat faizlerinz ne kadar yüksek,1
vadeli hesap faizleriniz ne kadar yüksek,1
turuncu ekstra çok karlı,1
hesap açmak istiyorum,1
kredi kartı başvurusu,1
bana kredi olumlu sonuç verdi,1
nasil hesap acabilirim,1
turuncu hesap açtırmak istiyorum,1
turuncu ekstra kart istiyorum,1
vadeli hesap acmak istiyorum ayni zaman da banka karti ile internet alos verisi yapmak istiyorum,1
vadeli hesap nasıl açarım,1
nasılsınız,1
kredi karti almak istiyorum,1
çok teşekkür ederim iyi günler,1
yeni reklamınızı çok beğendim çok güzeldi,1
yeni tv reklamınız çok başarılı,1
tv reklamınız çok başarılı,1
yeni kampanyanız çok başarılı,1
müşteri dostu bir bankasınız,1
hizmetinizden çok memnunum,1
hizmetinizden çok memnun kaldım,1
sizden çok memnunum,1
bankanız hizmetlerinden çok memnunum,1
çok kibarsın,1
çok kibarsınız,1
çok kibarsın ingo,1
mizahşörsün be ingo,1
mizahşörsün ha,1
mizahını sevdim,1
evlen benimle,1
evlen benle,1
sevgilim ol,1
seni seviyom,1
iyisin,1
süpersin,1
işlemim çok hızlı gerçekleşti teşekkür ederim,1
çok hızlıydı teşekkür ederim,1
eftem hemen gerçekleşti çok teşekkürler,1
hesap acma,1
kıredi başvuru yakmak istiyorum,1
nasil hesap acabilirim,1
çok iyi bir banka,1
daha iyi bir banka bulamadık,1
daha iyi bir banka yok,1
senden daha iyi bir banka bulamadım,1
en iyi banka ing,1
seni çok seviyoruz ingo,1
ingo bir numarasın,1
bwnimle evlenir misin,1
kredi başvurusu,1
beko mağazasından ing taksitli telefon almak istiyorum,1
telefon için kredi çekmek istiyorum,1
i̇yi akşamlar,1
kredi kullanabilirmiyim,1
kredi cekmek istiyorum,1
mıbil şifre nasıl alırım,1
askerlik için kredi baş vuruşunda bulunmak istiyorumda,1
teşekkür ederim ,1
kredi kartı başvurusu yapmak istiyorum,1
kart numarasını yanlış bilgisi veriyor şifre almam için,1
kart no hatalı diyor girdiğim heryerde,1
şifre alamıyorum 2205 mesaj attım gelmedi cevap,1
şifre alamıyorum,1
sisteme giremiyorum,1
vadeli hesap acmak istiyorum,1
teşekkür ederim,1
sim bloke kaldıracağım ama kullanıcı kodu soruyor hatırlamıyorum,1
emekli maaşımı ing ye taşırsam alabileceğim promosyon tutarı nedir,1
maaş taşırsam alacağım promosyon,1
emeklilik maaşı promosyonunu öğrenmek istiyorum,1
kredi çekmek istiyorum,1
kiredi kulanabiliyormuyum,1
kredi çekmek istiyorum,1
bedelli kredisi,1
ihtiyac kredisi,1
daha önceden banka ile sıkıntım oldu ama şuan temizim bedelli için kredi çekebilirmiyim,1
e turuncu hesap,1
kredi verin,1
şubeye gitmeden kredi basvurusu,1
merhabalar,1
mobil internet bankacılık almak istiyorum,1
kredi çekcem,1
kredi başvurusu yapmak istiyorum,1
eşim ev hanımı evde dikiş yaparak gelir elde ediyor ihtiyaç kredisi ile işini büyütmek dükkan açmak istiyor kredi alabilir mi,1
mai̇l adresi̇ni̇ yaziyorum ama başka mai̇l adresi̇ çikiyor sözleşme kisminda,1
e turuncu hesap açmak i̇sti̇yorum,1
adamsın ingo,1
taşıt kredisi istiyorum,1
taşıt kredisi çekmek istiyorum,1
taşıt kredisine ihtiyacım var,1
ihtiyaç kredisi istiyorum,1
ihtiyaç kredisi çekmek istiyorum,1
ihtiyaç kredisine ihtiyacım var,1
konut kredisi istiyorum,1
konut kredisi çekmek istiyorum,1
konut kredisine ihtiyacım var,1
sigorta istiyorum,1
sigorta yapmak istiyorum,1
sigrta yaptırmak istiyorum,1
sigortaya ihtiyacım vaar,1
hesap açmak isitiyorum,1
hesap açtırmak istiyorum,1
turuncu hesap istiyorum,1
turuncu hesap açtırmak istiyorum,1
e turncu hesap istiyorum,1
e turuncu hesap açtırmak istiyorum,1
vadeli hesap isityorum,1
vadeli hesap açtırmak istiyorum,1
vadesiz hesap istiyorum,1
vadesiz hesap açtırmak istiyorum,1
müşteri olmak istiyorum,1
müşteriniz olmak istiyorum,1
ing bank müşterisi olmak istiyorum,1
ing bankla çalışmak istiyorum,1
ing bank ile çalışmak istiyorum,1
aslansın,1
e turuncu harika,1
turuncu hesap harika,1
ing bankda çalışmak istiyorum,1
sizde çalışmak istiyorum,1
ing bankda işe nasıl girerim,1
ing bankda nasıl çalışırım,1
ingde çalışmak istiyorum,1
ingde nasıl çalışırım,1
merhaba kolay gelsin,1
sizde staj yapmak istiyorum,1
ingde staj yapmak istiyorum,1
ing bankda staj yapmak istiyorum,1
ozan güven çok iyi seçim,1
reklamınızı çok sevdim,1
iyi ki varsınız,1
ingli olmak istiyorum,1
ingliyim farkındayım,1
ingo seni seviyorum,1
süpersin,1
işlemim çok hızlı gerçekleşti teşekkür ederim,1
çok hızlıydı teşekkür ederim,1
eftem hemen gerçekleşti çok teşekkürler,1
hesap acma,1
kıredi başvuru yakmak istiyorum,1
nasil hesap acabilirim,1
merhabalar kolay gelsin,1
tşk,1
çok teşekkür ederim çok yardımcı oldun,1
çok sağol,1
çok iyisin ingo,1
süpersin,1
kolay gelsin iyi aksamlar,1
teşekkür ederim ,1
teşekkürler,1
love,1
teşekkürler,1
sizede tsklr,1
çok tatlısın,1
komiksin,1
eğlencelisin ha,1
çok yardımcı oldun çok sağol,1
çok başarılısınız,1
süpersiniz,1
bankacılık budur,1
çok zekisin,1
eyvallah bro,1
oo reis cok hizlisin eyvallah,1
kardom mükemmelsin,1
helal olsun,1
çok memnun kaldım,1
çok mutlu oldum,1
mutlu ettiniz teşekkürler,1
reis süpersin,1
knki çok sağol,1
teşekkür ederim,1
en iyi banka sizsiniz,1
aslansın,1
süper bankasınız,1
adamsın,1
allah razı olsun çok yardımcı oldun,1
nasil kredi alabilirim sizinle çalişmak istiyorum,1
nasıl müşteri olurum,1
nasıl müşteriniz olurum,1
müşteriniz olmak istiyorum,1
müşteri olmak için ne yapmalıyım,1
müşteriniz olmak için ne yapmalıyım,1
sizin müşteriniz olmicam da kimin müşteris olcam,1
sizin müşteriniz olmayacağım da kimin müşterisi olacağım,1
sizinle çaşılmak istiyorum,1
birlikte çalışalım,1
gelin beraber çalışalım,1
ingocum çok teşekkürler,1
cansın can,1
ingocum sağol,1
çok teşekkürler,1
süper,1
harika,1
tam bi inglisin,1
seni seviyorum,1
memnunum,1
sizden memnunun,1
allaha emanet ol,1
maşallah,1
yuppi,1
aeo,1
oley,1
holley,1
olley,1
efsane,1
efffsaaaneeee,1
efso,1
kaplansın,1
kredim onaylandı teşekkür ederim,1
kredim onaylandı çok teşekkür ederim,1
kredim onaylandı çok sağolun,1
kredi kartı başvurum onaylandı çok teşekkürler,1
kartım geldi çok teşekkür ederim,1
kartım geldi çok sağolun,1
mevuat faizlerinin çok iyi,1
hoş geldin faizinin çok iyi,1
bu ay ek faiz aldım çok iyi geldi,1
hoşgeldin faizini çok seviyorum,1
ne kadar akıllısın,1
şimdi ben hesap açmak istiyorum sizin bankanızda,1
hesap açmak istiyorum,1
nasıl e turuncu hesap açabilirim,1
pegasus kart istiyorum,1
pegasus card istiyorum,1
pegasus classic card istiyorum,1
pegasus klasik kart istiyorum,1
pegasus classic kart istiyorum,1
pegasus premium kart istiyorum,1
pegasu premium card istiyorum,1
müşteri olmak istiyorum,1
nasıl müşteriniz olacağım,1
kredi kullanmak istiyorum,1
ev kredisi istiyorum,1
e turuncu hesap açmak istiyorum,1
turuncu hesap açmak istiyorum,1
e turuncu hesap istiyorum,1
turuncu hesap istiyorum,1
turuncu ekstra istiyorum,1
turuncu ekstra kart almak istiyorum,1
turncu ekstra kart nasıl alırım,1
bankanızdan çok memnunum,1
sizinle çalışmak çok güzel,1
sizinle çalışmak istiyorum,1
kobiyim pos istiyorum,1
kobiyim sizinle çalışmak istiyorum,1
emekliyim maaşımı sizden almak istiyorum,1
aylığımı sizden almak istiyorum,1
emekli aylığımı sizden almak istiyorum,1
sigorta istiyorum,1
sigorta yaptırmak istiyorum,1
vadeli hesap açmak istiyorum,1
merhabalar,1
merabalar,1
selamlar,1
merhabalar nasılsın,1
merhabalar nasılsınız,1
merabalar nasılsın,1
merhabalar nasılsın,1
selamlar nasılsın,1
selamlar nasılsınız,1
iyi günler,1
iyi akşamlar,1
günaydın,1
günaydınlar,1
kolay gelsin iyi aksamlar,1
hayırlı işler,1
allah işini rast geitrsin,1
allah bereket versin,1
iyi ki doğdun ingo,1
iyi ki doğdun,1
şube çalışanlarınızdan çok memnunum,1
bankacılık budur,1
yapay zeka budur,1
seni çok iyi yapmışlar,1
çok akıllısın,1
çok iyisin,1
mevduat faizlerinz ne kadar yüksek,1
vadeli hesap faizleriniz ne kadar yüksek,1
turuncu ekstra çok karlı,1
hesap açmak istiyorum,1
kredi kartı başvurusu,1
bana kredi olumlu sonuç verdi,1
nasil hesap acabilirim,1
turuncu hesap açtırmak istiyorum,1
turuncu ekstra kart istiyorum,1
vadeli hesap acmak istiyorum ayni zaman da banka karti ile internet alos verisi yapmak istiyorum,1
vadeli hesap nasıl açarım,1
nasılsınız,1
kredi karti almak istiyorum,1
çok teşekkür ederim iyi günler,1
yeni reklamınızı çok beğendim çok güzeldi,1
yeni tv reklamınız çok başarılı,1
tv reklamınız çok başarılı,1
yeni kampanyanız çok başarılı,1
müşteri dostu bir bankasınız,1
hizmetinizden çok memnunum,1
hizmetinizden çok memnun kaldım,1
sizden çok memnunum,1
bankanız hizmetlerinden çok memnunum,1
çok kibarsın,1
çok kibarsınız,1
çok kibarsın ingo,1
mizahşörsün be ingo,1
mizahşörsün ha,1
mizahını sevdim,1
evlen benimle,1
evlen benle,1
sevgilim ol,1
seni seviyom,1
iyisin,1
neden bu kadar az,-1
e nasil emin olacaz,-1
kiralık kasadan başka bir şey bilmez misin sen,-1
neden  kredi  basvurum  olumsuz,-1
kredi başvurusu yaptım emekliyim bankanız olumlu yanıt vermedi,-1
kuşadası ing bank müdürü hakkında müşteri hizmetleri bölümüne yazdığım şikayet yazısına cevap alamadım,-1
sürekli tc numaramazı özel bilgilerimizi paylaşıyoruznekadar güvenli,-1
birdahada asla basvuru yapmam,-1
hata veriyor giremiyorum,-1
am,-1
sokuk,-1
basvuru yaptim niye hala basvuru sorgulamamda yok gorunuyor,-1
bn 2 saat once maaş kartı aldim sifre daha gelmedi,-1
bana dönüş yapılmadı,-1
kayitli telefonum si̇li̇nmi̇ş,-1
si̇stemde kayitli telefonum si̇li̇nmi̇ş,-1
bunu bende biliyorum,-1
e turuncu hesap baş vurum için henüz bir cevap alamadım ayrıca adres güncellemesi yapmak istiyorum!,-1
ananizin ami,-1
ne demem gerekiyor nasıl konuşmam gerekiyor yeterince açık değilmi,-1
yanıt niye vermiyorsunuz,-1
niye yanıt yok,-1
vermiyorsunuz,-1
alamıyom mu,-1
neden cevap alamıyorum,-1
neden cevap yok,-1
sus artık,-1
hiçbi bok bilmiyosun,-1
allah belanı versin,-1
mal,-1
gerizekalı,-1
çok salaksın,-1
hiçbişi bilmiyosun,-1
hiçbirşey bilmiyosun,-1
beceriksizsin,-1
soruyorum soruyorum cevap yok,-1
yazıyorum yazıyorum cevap yok,-1
anlatamıyorum galiba,-1
e turuncu hesaba nasıl sahip olurum,-1
başvurunuz bulunmamaktadır diyo ama başvurduk onaylandı dedi,-1
basvuruyorum ama olumsuz yanıt veroyorlar,-1
tama abi gerek kalmadı yanı kopyala yapıştır filan ayıptır yaa,-1
aynı soruları soruyorsunuz,-1
yaptım ama kabul etmıyo,-1
şifre alamıyorum,-1
alt tarafı 1000 liralık vade hesaplayacaksınız,-1
şifre almakta sorun yaşıyorum,-1
sorun yasıyorum,-1
amk,-1
giriş yaptigimda eski telefon numarama sms atiyo,-1
kredi kullanmak isdiyorum,-1
ben kredi ceke bilmem için ne yapmam gerekiyor,-1
cep şifre almak istiyorum,-1
neyse boşverin,-1
off,-1
beyinsizler,-1
çok saçma bir bankasınız,-1
beni dinlemiyormusun sen,-1
fu** you,-1
bana bak şimdi,-1
shut up,-1
çok başarısızsın,-1
iğrençsin,-1
hiç yardımcı olmadınız,-1
sizinle çalışmak istemiyorum,-1
bu ne biçim faiz oranı,-1
faizleriniz çok yüksek,-1
salak salak konuşuyosun,-1
ne biçim sorular bunlar,-1
ne salak salak konuşuyosun,-1
aptal mısın,-1
abv,-1
böyle saçmalık görmedim,-1
baya baya aptalsın,-1
böyle ai mı olur,-1
bu nasıl yapay zeka,-1
hiçbi boktan anlamıyosun,-1
boşa zamanımı harcadın,-1
faydasızsın,-1
bi sike derman olmadın aq,-1
yarram,-1
yaralı parmağa işemezsin,-1
kafa sikiyosun,-1
sus aq,-1
bir işlem yapmak niye bu kadar zor,-1
bu nasıl banka,-1
bu nasıl dijitallik,-1
hoş değil,-1
sıktın,-1
bi siktir git,-1
konut eşya sormadım kı,-1
kredi almak bukadar zor mu,-1
hee ben diyorum ankara sen diyosun gümüşhane anladım ,-1
niye bizim gibi dürüslere sizin banka calışmayalım sadece karverin bari,-1
e turuncu hesabima faiz getirisi yansımamış,-1
ancak herhangi bir şifre vs yok 2205'ten şifre almaya çalıştığımda,-1
başvuruyu kabul etmiyor,-1
bende iş bankasından alirim,-1
kartım calismiyor,-1
yeter artık,-1
hiç yardımcı olmuyosun,-1
bundan sonra maaşını sizin bankanizdan almiyacagim,-1
neden dolar al sat arasindaki makas cok fazla bu bankada,-1
cep şifre alamıyorum,-1
şifre alcam kartıkm yok,-1
şifre unuttum kart numarası istiyo,-1
şifre alacağım ama kartım yok,-1
şifre alacağım ama kredi kartı numarası istiyor kartım yok,-1
müşteri tesmsilcisine  bağlanamıyorum,-1
kredi neden çıkmıyor,-1
neden kredi kartı vermiyorsunuz,-1
bir türlü şifre alamıyorum,-1
bu nasıl banka,-1
sana bisey soruyorum,-1
sana bişey soruyorum,-1
sana birşey soruyorum,-1
krediye baş vuruyorum olumlu bir netice alamiyorum,-1
neden benim telefon numaramla kart basvurusu yapamiyorum,-1
daha ing kartım gelmedi ve bulunduğum yerde şube yok nasıl para çekebilirim,-1
neden her zaman aktivasyon kodu istiyor bu uygulama,-1
kart ile çalışamıyorum,-1
merhaba ben krdi çekmek istiyorum ama olmuyor ,-1
kredi çekmek istiyorum ama olmuyor,-1
bana kredi çıkmıyor,-1
bana neden kredi çıkmıyor,-1
kredim neden onaylanmıyor,-1
kredim onaylanmıyor,-1
skorum yüksek kredi çıkmıyor,-1
skorum yüksek neden kredi çıkmıyor,-1
kkb kredi notum yüksek neden kredi çıkmıyor,-1
kkb kredi notum yüksek ama kredi çıkmıyor,-1
kkb kredi notum yüksek ama kredi çıkmıyor,-1
kredi kartı bile kullanmıyorum neden kredi vermiyorsunuz,-1
kredi notum neden düşük,-1
kredi kartı neden vermiyorsunuz,-1
düzenli gelirim var neden kredi alamıyorum,-1
düzenli gelirim olmasına rağmen neden kredi çıkmıyor,-1
düzenli gelirim var neden kredi kartı çıkmıyor,-1
düzenli gelirim olmasına rağmen neden kredi kartı çıkmıyor,-1
bana neden ihtiyaç kredisi çıkmıyor,-1
bana neden konut kredisi çıkmıyor,-1
bana neden taşıt kredisi çıkmıyor,-1
düzenli gelirim var ihtiyaç kredisi alamıyorum,-1
düzenli gelirim var konut kredisi alamıyorum,-1
düzenli gelirim var taşıt kredisi alamıyorum,-1
memurum bana neden kredi çıkmıyor,-1
memurum neden kredi kartı çıkmıyor,-1
emekliyim,-1
puştmusun,-1
puşt musun,-1
orospu çocuğu,-1
tavuk mu sikiyonuz,-1
şikayetim var,-1
bi şube çalışanınızla igili şikayetim var,-1
kartımı atm yuttu,-1
kartım gelmedi,-1
ekstrem gelmedi,-1
atmde param kaldı,-1
paramı atmde unuttum,-1
yakınımda hiç atm yok,-1
yakınımda hiç şubeniz yok,-1
neden atm sayınız bu kadar az,-1
hiçbir yerde atm yok,-1
kartım ne zaman gelecek,-1
kredi çekmek istiyom ihtiyaç,-1
hesabıma para geçmesi gerekiyordu,-1
beni dinliyor musunuz,-1
ordamısınız,-1
telefon bankacılığına  giremiyorum,-1
mobile giriş yapamıyorum,-1
mobil bankacılığa giremiyorum,-1
login olamıyorum,-1
adresim kabul edilmiyor neden,-1
giriş yapamiyorum bildigim sifreyle,-1
yanlış bilgi diyor,-1
kredi kartı istiyorum herhangi bir hesap değil,-1
giriş yapamiyorum,-1
olmuyor,-1
ya ben ismim  cikiyormu  diye sorgulama yapıyorum olmuyor,-1
denedim olmuyor ben esin ek kartini kullaniyorum ama kendi hes,-1
başvuruyu yaptıktan sonra farklı bir numara ile deneyin diyor,-1
giriş icin cep şifre alamiyorum,-1
merhaba telefon numaram ile bonuscard başvurusunda bulunamıyorum bunun nedeni nedir,-1
i̇ng bankasın çok sorumsuz olmus,-1
sorumsuzsunuz,-1
bu nasıl iş ahlakı,-1
ciddiyetsizsiniz,-1
bu nasıl bankacılık,-1
dijitalim diye geçiniyosunuz,-1
dijitalim diye geçiniyorsunuz,-1
kredim değerlendirelememiş neden,-1
bankamatik kartım henüz gelmedi,-1
kiredi kartımı yapilandirdim ve sonra tüm borcumu ödedim ama kartım açılmadı neden,-1
neden ing den kıredi alamuyom,-1
neden kredi kartı almak nu kadar zor,-1
hiçbirşey bilmiyorsun,-1
hiçbişi bilmiyorsun,-1
başvurum görünmüyor,-1
internet şifrem yok,-1
ben ing bank ta yeni olduğum için kartım bugün geldi ne kartın şifresini biliyorum nede mobil bankacılıktan şifre alabiliyorum hiç alamıyorum,-1
para yatiramiyorum,-1
trabzon şubesi atm bozuk,-1
atm bozuk,-1
kullanici kodunu fln bilmiyorum,-1
kart başvurusu yapıyorum lütfen başka bir numarayla yapın diyor,-1
i̇ş yeri telefonu yok ne yapalirim,-1
bu telefona link gönderemezmisiniz,-1
internetten vadesiz hesap actim sozlesmem hala elime ulasmadı,-1
mobil giriş yapamıyorum,-1
turuncu hesap acilmiyor,-1
turuncu hesap acamiyorum,-1
ne bileyim nasıl,-1
niçin kredi çıkmadığını öğrenmek istiyorum,-1
şubeyle bitürlü iletişim kuramıyorummardin,-1
annen,-1
ing maaş kartım gelmedi hafta sonu nasıl para çekicem,-1
buradan hattim degistigi icin ogrenemiyorum hata veriyor,-1
i̇ngo provizyonda bekleyen 65 tl neyin necisi,-1
alış ve satış kuru arasın da neden bu kadar çok fark var,-1
sorumun cevabını alamadım,-1
soruma cevap vermiyosun,-1
sorularıma cevap vermiyorsun,-1
sorumun cevabı bu mu,-1
bu nasıl cevap,-1
böyle cevap mı olur,-1
böyle iş mi olur,-1
mobil şifremi unuttum yanimda kartım yok,-1
katım yanımda yok,-1
kredi başvurdum olumsuz oldu,-1
aynı şeyleri tekrarlıyorsun sürekli,-1
tekrara düşüyosun yalnız,-1
tekrara düşüyorsun yalnız,-1
tekrara düşüyosun yanlız,-1
tekrara düşüyorsun yanlız,-1
kartım yanımda yok,-1
kartım yanımda değil,-1
o nasil ismis kredi kartim yok,-1
dogrulama kodunu kabul etmiyor,-1
doğrulama kodu yanlış,-1
doğrulama kodu hata veriyor,-1
uygulama hata veriyor,-1
mobil uygulama hata veriyor,-1
kart numarasımı bilmediğim için giriş yapamıyorum,-1
talebinize suan yanit verilememektedir diyor,-1
merhaba turuncu ve e turuncu hesap açmak istiyorum ama açamıyorum,-1
ama benim hiç hesabim yok,-1
devam butonu basmıyor,-1
kartım kırıldı ayni gun yenilenirmi,-1
reklamlarda daha yüksek faiz taahüt ediyosunuz ama reelde böyle değil,-1
reklamda faizler daha yüksekti,-1
neden büşük faizden hesaplıyosunuz,-1
kredi kartım alışverişe kapatıldı mı ,-1
kredi kartımı kullanamıyorum nedenini öğrenebilir miyim ,-1
hesap actim kurye gelmedi kurye numarasini alabilirmiyim,-1
hesap açtım kartım gelmedi,-1
kurye neden kartımı getirmedi,-1
kurye neden kartımı geitrimiyo,-1
kartım nerede,-1
internet şifrem bloke oldu kartım da kayıp ne yapabilirim,-1
cep tlf gelen şifreyi kullanamıyorum,-1
cep telefonuma gelen şifreyi kullanamıyorum,-1
cepşifre hatalı,-1
cepşifre kullanamıyorum,-1
sms şifrelerim bana ulaşmıyor,-1
smsleriniz bana ulaşmıyor,-1
smslerinizi göremiyorum,-1
sürekli bildirim gelmesinden sıkıldım,-1
çok fazla push yolluyorsunuz,-1
yetti bu kadar da bildirim yollanmaz,-1
sikerim sen,-1
başıma gelecek sorunlardan siz sorumlusunuz,-1
bunların sorumlusu sizsiziniz,-1
sorumlu sizsiniz,-1
bu işin sorumlusu sizsiniz,-1
ama ben hesabima giriyorum,-1
hesabıma giremiyorum,-1
hesabıma giriş yapamıyorum,-1
sms kodlarim gelmiyor,-1
ben hesaba giremiyom şifreyi yazmama ragmen,-1
doğrulama şifresi telefonunuza gönderildi diyor fakat gelmedi,-1
qr kod ile atm den para cekeniyorum,-1
qr kod ile para çekemiyorum,-1
qr kod ile atmden para çekemiyorum,-1
para çekemiyorum,-1
qr kod ile para çekilmiyor mu,-1
paramız neden yatmıyor,-1
para elime ulaşmadı,-1
eft işlemim neden gerçekleşmedi,-1
havale işlemim neden gerçekleşmedi,-1
para transferi yapamıyorum,-1
para transferi yapamıyorum neden,-1
eft olmuyo,-1
eft olmuyo neden,-1
havale olmuyo,-1
havale olmuyor,-1
havale olmuyor neden,-1
eft olmuyor neden,-1
maaşım yatmamış şirketim o ay verdiyi halde neden yatmiyor,-1
maaşım ödemem neden gecikiyor,-1
neden maaşım yatmıyor,-1
paramı verin köpekler,-1
verin paramı,-1
fakat bu faiz oaranı düşük,-1
merhaba ben banka musterisiym bana kredi neden verilmiyor,-1
bana neden kredi verilmiyor,-1
banka müşterisi olduğum halde kredi verilmiyor neden,-1
kart ım yok,-1
şifrem bloke edıldı,-1
ben çok sıkıldım ihtiyaç kredisi nasıl alabilirim,-1
siz bir haber gonderemiyor musunuz bunlara,-1
ing bank atm sinde kartım sıkıstı,-1
ilk girişi yapamıyorum,-1
kimse telefona cevap vermiyor,-1
çağrı merkezinde kimse yok mu,-1
telefonlara kimse çıkmıyor,-1
sürekli bekletiyorsunuz,-1
beklemekten sıkıldım,-1
çok bekletiyosunuz,-1
merhaba başvurduğum destek hesap talebim reddedildi sebebi nedir,-1
i̇nternet bankaciligina neden giris yapamiyom,-1
dogrulama kodu hep yanlıs yaptınız denıyo,-1
limit göremiyorum,-1
kredi limitimi göremiyorum,-1
kart limitimi göremiyorum,-1
neden limitimi artıramıyorum,-1
müşteri limitimi göremiyorum,-1
müşteri limitimi artıramıyorum,-1
kiredi cekme istiyorum ama olmuyor bi turlu,-1
kart şifresini değil internet bankacılığı şifremi unuttum,-1
başvurduğum halde başvurunuzu bulunmamaktadır diyor,-1
başvuru yaptığım halde başvurunuzu bulunmamaktadır diyor,-1
adres kabul etmiyor,-1
adresde sıkıntı çıkarıyor,-1
ing mobil uygulamasini kapatmak istiyorum,-1
internet bankaciligimi kapatmak istiyorum,-1
destek hesap nasıl iptal edilir,-1
kredi başvuruma neden onay verilmiyor,-1
kartsız şifre almak istiyorum,-1
kartsız şifre alınmıyor mu,-1
kartım yok numarasını nasıl bilebilirim,-1
bu ne saçmalık,-1
aptal aptal sorular,-1
soru sordum farkındasınız değil mi,-1
eturuncu faiz oranlarını ne zaman güncellemeyi düşünüyorsunuz,-1
giriş yapamıyoruz,-1
şifremiz yok,-1
i̇lk defa koulanıyorum giriş yapamadım,-1
olmamış,-1
böyle chtabot olmaz,-1
böyle ai mı olur,-1
böyle ai olmaz,-1
bu nasıl ai,-1
yapay zeka mı şimdi bu,-1
yapay zekamı şimdi bu,-1
bütün şeyleri yaziyom başvuru yapamiyom,-1
bilgileri giriyorum şifre geliyor sorun bildiriyor,-1
kardesim benim ing bankasinda herhangi bir hesabim yok,-1
mal misiniz,-1
eft işlemi yaptım karşı tarafa ulasmamis,-1
bu nasıl bankacılıktır,-1
defol git ya bir de hizmetmiş gibi cevap veriyorsunuz,-1
kaşarlar,-1
şerefsizler,-1
kartım geldi ama işlem yapamıyorum,-1
yeni kartımla işlem yapamıyorum sebebi nedir,-1
yeni kart aldım fakt işlem yapılamıyor,-1
yeni kartım işlemlere neden kapalı,-1
kartım işlemlere kapalı bi sorun mu var,-1
kartsifremi alamadım,-1
cok kotuyum sizin bankaniz beni deli etti,-1
neden kimse kredi konusunda yardımcı olmuyor,-1
yani mobil şifremi nasıl alacam,-1
başvurum var ne olacak şimdi,-1
neden olumsuz,-1
maaş hesabım mobil uygulama da görünmüyor,-1
anana slm şöyle,-1
internet bankacilik bloke ildu,-1
bu değil,-1
kredi alamıyom mu,-1
kredi borç ları mı ödeyemez duruma geldim kredi kullanmak istiyorum ama kredi notum çok düşük,-1
şifre almak için girdiğim bilgiler yanlış diyor,-1
denedim fakat yanlış bilgi diyor,-1
bu işlemi yapıyorum herhangi bilgide hata oluştu yazıyor,-1
denedim fakat yanlıl bilgi diyor ama bilgilerim yanlış değil,-1
ücretli oldugu icin hesabimda yeterli tl olmadigi icin oradan alamadim acil almam gerekiyor ne yapmaliyim,-1
merhaba bireysel emeklilikten istediğim zaman ayrılabilir miyim,-1
kullanıcı adım ve şifrem yok,-1
sorunumu çözmen için alternatif sunmuyorsun zaten sorunumu anlamadın bile şuanda benim devrelerim yandı,-1
siri kadar akıllı degilsin,-1
bilmiyorsun bir şey,-1
la ininal gecerli mi diyom aq,-1
seni sesli yapsalar daha iyi olurdu,-1
ben ne sordum sen ne cevap veriyon,-1
neden değerlendirme olmad,-1
altın  makas aralıgı cok aciık bir sana bir bana ne bu ya,-1
1 gram oynatmayın makas araligıni,-1
ing zor gelisir,-1
beni anlamıyorsun ingooo,-1
hata verdi yaziyor,-1
yine sistemde hata oluştu yazıyo başvuruyu kabul etmiyor,-1
başvurunuz bulunmamaktadır yaziyor,-1
sende pes ettin dimi,-1
kötü!,-1
kötü,-1
seni sevmedim hiç,-1
ben iyi değilim,-1
başarısız,-1
bi bok bilmiyosun,-1
canım sıkkın,-1
daha iyi hizmet sunabilirsin,-1
sanirim deliricem,-1
saka bu,-1
çok boş bir uygulama,-1
bişey soruyorum,-1
siz bence gelişi güzel cevap veriyorsunuz,-1
çok başarısız bir uygulama,-1
ben ne diyom sen nediyon,-1
sorularımı anlamıyo mu,-1
neyi anlıyon,-1
sifre alamiyorum,-1
hata veriyor,-1
bumu senin cevabın,-1
sen git yat uyu boşver,-1
madem vermeyeceksin sen bir ise yaramazsin ingo ,-1
cok yavassin,-1
kafa atarım sana söğüş yaparım seni,-1
akıllı ol bak,-1
hay senin gibi robotu,-1
çok çalışman lazım çoook,-1
yardimci olamiyorsun ingo,-1
ben nerdeyimm sen nerdesin,-1
bi cacik olmaz senden,-1
la gardaş niye kredi vermiyonuz,-1
i̇yi vermesseniz vermeyin la,-1
araba alacam kredi lazım amk verin işte,-1
kaybol,-1
ingo ben diyom ankara sen diyon bilmem nerem kara,-1
kendinizi düzeltin,-1
ingo adamım daha çok fırın ekmek yemen gerekir,-1
siri kadar akıllı degilsin,-1
sorunumu çözmen için alternatif sunmuyorsun zaten sorunumu anlamadın bile şuanda benim devrelerim yandı,-1
boşver anlayan anladı işin cok zor ,-1
bi halt anlamıyosun,-1
ben sana öyle mi dedim,-1
aq oruspulari,-1
siktir git,-1
temsi̇lci̇ bi̇le ne dedi̇ği̇ni̇ bi̇lmi̇yor bi̇lmeyen i̇nsanlarin hepsi̇ni̇ doldurmuslar bankaya,-1
tamam kes sesi̇ni̇,-1
gelen turuncu extra kart numaralirini gi̇ri̇yorum burdan şi̇fre oluşturamiyorum,-1
ananı sikeyim,-1
senin devrene ya,-1
hay senin devreni,-1
senin devreni sikem,-1
senin devreni sikiyim,-1
devrelerine sıçam,-1
siz neden bahsediyorsunuz ,-1
anan,-1
durulama kudunu giremiyum,-1
kodda sorun oluşuyor,-1
kod girmeden sorun oluyor,-1
hesap kesim tarihi 25 kasım ancak ödeme extreme gelmedi göremiyorum,-1
kullanıcı kodumu bilmiyorum,-1
neden kapali banka,-1
ing bank niye kapali,-1
kartım atm de gecmıyor,-1
mobil bankacılığı kullanıyorum ama giriş yapamıyorum,-1
hesaba giriş yapamıyorum,-1
hatali diyor,-1
baş vurmak istedim hata diyor,-1
doğrulama koduna ne yazalım,-1
hattim boloke oldu,-1
şifrem bloke oldu,-1
hesabım bloke oldu,-1
hesaplarım bloke oldu,-1
kartım bloke oldu,-1
turuncu ekstra kartım bloke oldu,-1
pegasus kartım bloke oldu,-1
sim blokeyi nail kaldiracam,-1
dün yatan maşımi atm sorun yuzunden cekemiyorum,-1
hadi be,-1
cifre giriyorum tekrar kontrol edin diyor,-1
eft yapmak istiyorum 3 gün ileriye atıyor,-1
eftyi neden ileri tarihe atıyor,-1
girdiginiz bilgilere ait degerlendirme devam ediyor,-1
kimlikte yazan bilgileri yazıyorum uyuşmuyor diyor,-1
bilgiler  doğru ama yanlış deniliyo,-1
sicilim temiz olmasina ragmen niye teknosa cihaz vermiyo,-1
doğru girdiğime rağmen yanlış diyor,-1
tc kimlik numaram doğru fakat yanlış diyo,-1
ben  banka  olduğuna   nası  guveniym,-1
tc yanlış diyor,-1
tc sorun var,-1
tc doğru giriyorum yanlış diyor,-1
başvurumda kimlik no yanlış deniliyor,-1
billgiler dogru ama yanlis diyo,-1
dogru yaziyorum hata gosteriyor,-1
girdiğim bilgilerim doğru ama yanlış diyor,-1
tc mi yazıyorum ama yanlış gosteriyor,-1
bilgilerim neden doğrulanmıyor,-1
ingo bozulmuş,-1
ingo çalışmıyor,-1
nasıl robotsun aqq,-1
aqqq,-1
anan,-1
ya bi siktir git,-1
la bi sikitr git,-1
la bi git,-1
siktir aqq,-1
saçmaladın,-1
baya saçma,-1
çok saçma,-1
beğenmedim,-1
olmamış,-1
olmamışın,-1
olmamışsın,-1
yapamamışlar,-1
bırak git bu işleri sen,-1
bırak bu işleri sen,-1
bankacılık senin neyine,-1
sikimin robotu,-1
yarramın robotu,-1
sikimin robotu,-1
yarram,-1
iğrençsin,-1
çok az atmniz var,-1
çok az şubeniz var,-1
hiç atmniz yok,-1
hiç şubeniz yok,-1
sürekli şube kapıyosunuz,-1
sürekli şube kapatıyorsunuz,-1
atm neden kapandı,-1
atm neden kaldırıldı,-1
atmyi neden kaldırdınız,-1
ürünleriniz çok pahalı,-1
eft ücreti çok fazla,-1
çok fazla komisyon alıyosunuz,-1
çok komisyon alıyorsunuz,-1
faizler neden bu kadar yüksek,-1
kart borcum çok geldi,-1
kredimi yapılandıramıyorum,-1
neden kredimi erken kapatamıyorum,-1
neden kredi vermiyorsun,-1
neden bana kredi çıkmıyor,-1
neden bana ihtiyaç kredisi çıkmıyor,-1
neden konut kredisi çıkmıyor,-1
neden bana kart vermiyorsunuz,-1
kredi kartım neden bloke oldu,-1
borcumu ödeyemiyorum yardımcı olurmusunuz,-1
borçlarımı kapamam gerek yardımcı olur musnuz,-1
beni borca batırdınız,-1
borç batağındayım,-1
manav açıcam neden kredi vermiyosunuz,-1
iş kurcam neden kredi vermiyosunuz,-1
uygulamanız bozuk işlem yapamıyorum,-1
işlemim gerçekleşmedi,-1
maaşım neden yatmadı,-1
neden sadece türkçe,-1
uygulamanız neden türkçe,-1
bozuksun,-1
bu ne la,-1
bu nasıl ai,-1
bu ne biçim ai,-1
bu ne biçim deeplearnig,-1
bu ne biçim machine learning,-1
bankanizda herangi hesabim yok,-1
neden bu kadar az,-1
e nasil emin olacaz,-1
kiralık kasadan başka bir şey bilmez misin sen,-1
neden  kredi  basvurum  olumsuz,-1
kredi başvurusu yaptım emekliyim bankanız olumlu yanıt vermedi,-1
kuşadası ing bank müdürü hakkında müşteri hizmetleri bölümüne yazdığım şikayet yazısına cevap alamadım,-1
sürekli tc numaramazı özel bilgilerimizi paylaşıyoruznekadar güvenli,-1
birdahada asla basvuru yapmam,-1
hata veriyor giremiyorum,-1
am,-1
sokuk,-1
basvuru yaptim niye hala basvuru sorgulamamda yok gorunuyor,-1
bn 2 saat once maaş kartı aldim sifre daha gelmedi,-1
bana dönüş yapılmadı,-1
kayitli telefonum si̇li̇nmi̇ş,-1
si̇stemde kayitli telefonum si̇li̇nmi̇ş,-1
bunu bende biliyorum,-1
e turuncu hesap baş vurum için henüz bir cevap alamadım ayrıca adres güncellemesi yapmak istiyorum!,-1
ananizin ami,-1
ne demem gerekiyor nasıl konuşmam gerekiyor yeterince açık değilmi,-1
yanıt niye vermiyorsunuz,-1
niye yanıt yok,-1
vermiyorsunuz,-1
alamıyom mu,-1
neden cevap alamıyorum,-1
neden cevap yok,-1
sus artık,-1
hiçbi bok bilmiyosun,-1
allah belanı versin,-1
mal,-1
gerizekalı,-1
çok salaksın,-1
hiçbişi bilmiyosun,-1
hiçbirşey bilmiyosun,-1
beceriksizsin,-1
soruyorum soruyorum cevap yok,-1
yazıyorum yazıyorum cevap yok,-1
anlatamıyorum galiba,-1
e turuncu hesaba nasıl sahip olurum,-1
başvurunuz bulunmamaktadır diyo ama başvurduk onaylandı dedi,-1
basvuruyorum ama olumsuz yanıt veroyorlar,-1
tama abi gerek kalmadı yanı kopyala yapıştır filan ayıptır yaa,-1
aynı soruları soruyorsunuz,-1
yaptım ama kabul etmıyo,-1
şifre alamıyorum,-1
alt tarafı 1000 liralık vade hesaplayacaksınız,-1
şifre almakta sorun yaşıyorum,-1
sorun yasıyorum,-1
amk,-1
giriş yaptigimda eski telefon numarama sms atiyo,-1
kredi kullanmak isdiyorum,-1
ben kredi ceke bilmem için ne yapmam gerekiyor,-1
cep şifre almak istiyorum,-1
neyse boşverin,-1
off,-1
beyinsizler,-1
çok saçma bir bankasınız,-1
beni dinlemiyormusun sen,-1
fu** you,-1
bana bak şimdi,-1
shut up,-1
çok başarısızsın,-1
iğrençsin,-1
hiç yardımcı olmadınız,-1
sizinle çalışmak istemiyorum,-1
bu ne biçim faiz oranı,-1
faizleriniz çok yüksek,-1
salak salak konuşuyosun,-1
ne biçim sorular bunlar,-1
ne salak salak konuşuyosun,-1
aptal mısın,-1
abv,-1
böyle saçmalık görmedim,-1
baya baya aptalsın,-1
böyle ai mı olur,-1
bu nasıl yapay zeka,-1
hiçbi boktan anlamıyosun,-1
boşa zamanımı harcadın,-1
faydasızsın,-1
bi sike derman olmadın aq,-1
yarram,-1
yaralı parmağa işemezsin,-1
kafa sikiyosun,-1
sus aq,-1
bir işlem yapmak niye bu kadar zor,-1
bu nasıl banka,-1
bu nasıl dijitallik,-1
hoş değil,-1
sıktın,-1
bi siktir git,-1
konut eşya sormadım kı,-1
kredi almak bukadar zor mu,-1
hee ben diyorum ankara sen diyosun gümüşhane anladım ,-1
niye bizim gibi dürüslere sizin banka calışmayalım sadece karverin bari,-1
e turuncu hesabima faiz getirisi yansımamış,-1
ancak herhangi bir şifre vs yok 2205'ten şifre almaya çalıştığımda,-1
başvuruyu kabul etmiyor,-1
bende iş bankasından alirim,-1
kartım calismiyor,-1
yeter artık,-1
hiç yardımcı olmuyosun,-1
bundan sonra maaşını sizin bankanizdan almiyacagim,-1
neden dolar al sat arasindaki makas cok fazla bu bankada,-1
cep şifre alamıyorum,-1
şifre alcam kartıkm yok,-1
şifre unuttum kart numarası istiyo,-1
şifre alacağım ama kartım yok,-1
şifre alacağım ama kredi kartı numarası istiyor kartım yok,-1
müşteri tesmsilcisine  bağlanamıyorum,-1
kredi neden çıkmıyor,-1
neden kredi kartı vermiyorsunuz,-1
bir türlü şifre alamıyorum,-1
bu nasıl banka,-1
sana bisey soruyorum,-1
sana bişey soruyorum,-1
sana birşey soruyorum,-1
krediye baş vuruyorum olumlu bir netice alamiyorum,-1
neden benim telefon numaramla kart basvurusu yapamiyorum,-1
daha ing kartım gelmedi ve bulunduğum yerde şube yok nasıl para çekebilirim,-1
neden her zaman aktivasyon kodu istiyor bu uygulama,-1
kart ile çalışamıyorum,-1
merhaba ben krdi çekmek istiyorum ama olmuyor ,-1
kredi çekmek istiyorum ama olmuyor,-1
bana kredi çıkmıyor,-1
bana neden kredi çıkmıyor,-1
kredim neden onaylanmıyor,-1
kredim onaylanmıyor,-1
skorum yüksek kredi çıkmıyor,-1
skorum yüksek neden kredi çıkmıyor,-1
kkb kredi notum yüksek neden kredi çıkmıyor,-1
kkb kredi notum yüksek ama kredi çıkmıyor,-1
kkb kredi notum yüksek ama kredi çıkmıyor,-1
kredi kartı bile kullanmıyorum neden kredi vermiyorsunuz,-1
kredi notum neden düşük,-1
kredi kartı neden vermiyorsunuz,-1
düzenli gelirim var neden kredi alamıyorum,-1
düzenli gelirim olmasına rağmen neden kredi çıkmıyor,-1
düzenli gelirim var neden kredi kartı çıkmıyor,-1
düzenli gelirim olmasına rağmen neden kredi kartı çıkmıyor,-1
bana neden ihtiyaç kredisi çıkmıyor,-1
bana neden konut kredisi çıkmıyor,-1
bana neden taşıt kredisi çıkmıyor,-1
düzenli gelirim var ihtiyaç kredisi alamıyorum,-1
düzenli gelirim var konut kredisi alamıyorum,-1
düzenli gelirim var taşıt kredisi alamıyorum,-1
memurum bana neden kredi çıkmıyor,-1
memurum neden kredi kartı çıkmıyor,-1
emekliyim,-1
puştmusun,-1
puşt musun,-1
orospu çocuğu,-1
tavuk mu sikiyonuz,-1
şikayetim var,-1
bi şube çalışanınızla igili şikayetim var,-1
kartımı atm yuttu,-1
kartım gelmedi,-1
ekstrem gelmedi,-1
atmde param kaldı,-1
paramı atmde unuttum,-1
yakınımda hiç atm yok,-1
yakınımda hiç şubeniz yok,-1
neden atm sayınız bu kadar az,-1
hiçbir yerde atm yok,-1
kartım ne zaman gelecek,-1
kredi çekmek istiyom ihtiyaç,-1
hesabıma para geçmesi gerekiyordu,-1
beni dinliyor musunuz,-1
ordamısınız,-1
telefon bankacılığına  giremiyorum,-1
mobile giriş yapamıyorum,-1
mobil bankacılığa giremiyorum,-1
login olamıyorum,-1
adresim kabul edilmiyor neden,-1
giriş yapamiyorum bildigim sifreyle,-1
yanlış bilgi diyor,-1
kredi kartı istiyorum herhangi bir hesap değil,-1
giriş yapamiyorum,-1
olmuyor,-1
ya ben ismim  cikiyormu  diye sorgulama yapıyorum olmuyor,-1
denedim olmuyor ben esin ek kartini kullaniyorum ama kendi hes,-1
başvuruyu yaptıktan sonra farklı bir numara ile deneyin diyor,-1
giriş icin cep şifre alamiyorum,-1
merhaba telefon numaram ile bonuscard başvurusunda bulunamıyorum bunun nedeni nedir,-1
i̇ng bankasın çok sorumsuz olmus,-1
sorumsuzsunuz,-1
bu nasıl iş ahlakı,-1
ciddiyetsizsiniz,-1
bu nasıl bankacılık,-1
dijitalim diye geçiniyosunuz,-1
dijitalim diye geçiniyorsunuz,-1
kredim değerlendirelememiş neden,-1
bankamatik kartım henüz gelmedi,-1
kiredi kartımı yapilandirdim ve sonra tüm borcumu ödedim ama kartım açılmadı neden,-1
neden ing den kıredi alamuyom,-1
neden kredi kartı almak nu kadar zor,-1
hiçbirşey bilmiyorsun,-1
hiçbişi bilmiyorsun,-1
başvurum görünmüyor,-1
internet şifrem yok,-1
ben ing bank ta yeni olduğum için kartım bugün geldi ne kartın şifresini biliyorum nede mobil bankacılıktan şifre alabiliyorum hiç alamıyorum,-1
para yatiramiyorum,-1
trabzon şubesi atm bozuk,-1
atm bozuk,-1
kullanici kodunu fln bilmiyorum,-1
kart başvurusu yapıyorum lütfen başka bir numarayla yapın diyor,-1
i̇ş yeri telefonu yok ne yapalirim,-1
bu telefona link gönderemezmisiniz,-1
internetten vadesiz hesap actim sozlesmem hala elime ulasmadı,-1
mobil giriş yapamıyorum,-1
turuncu hesap acilmiyor,-1
turuncu hesap acamiyorum,-1
ne bileyim nasıl,-1
niçin kredi çıkmadığını öğrenmek istiyorum,-1
şubeyle bitürlü iletişim kuramıyorummardin,-1
annen,-1
ing maaş kartım gelmedi hafta sonu nasıl para çekicem,-1
buradan hattim degistigi icin ogrenemiyorum hata veriyor,-1
i̇ngo provizyonda bekleyen 65 tl neyin necisi,-1
alış ve satış kuru arasın da neden bu kadar çok fark var,-1
sorumun cevabını alamadım,-1
soruma cevap vermiyosun,-1
sorularıma cevap vermiyorsun,-1
sorumun cevabı bu mu,-1
bu nasıl cevap,-1
böyle cevap mı olur,-1
böyle iş mi olur,-1
mobil şifremi unuttum yanimda kartım yok,-1
katım yanımda yok,-1
kredi başvurdum olumsuz oldu,-1
aynı şeyleri tekrarlıyorsun sürekli,-1
tekrara düşüyosun yalnız,-1
tekrara düşüyorsun yalnız,-1
tekrara düşüyosun yanlız,-1
tekrara düşüyorsun yanlız,-1
kartım yanımda yok,-1
kartım yanımda değil,-1
o nasil ismis kredi kartim yok,-1
dogrulama kodunu kabul etmiyor,-1
doğrulama kodu yanlış,-1
doğrulama kodu hata veriyor,-1
uygulama hata veriyor,-1
mobil uygulama hata veriyor,-1
kart numarasımı bilmediğim için giriş yapamıyorum,-1
talebinize suan yanit verilememektedir diyor,-1
merhaba turuncu ve e turuncu hesap açmak istiyorum ama açamıyorum,-1
ama benim hiç hesabim yok,-1
devam butonu basmıyor,-1
kartım kırıldı ayni gun yenilenirmi,-1
reklamlarda daha yüksek faiz taahüt ediyosunuz ama reelde böyle değil,-1
reklamda faizler daha yüksekti,-1
neden büşük faizden hesaplıyosunuz,-1
kredi kartım alışverişe kapatıldı mı ,-1
kredi kartımı kullanamıyorum nedenini öğrenebilir miyim ,-1
hesap actim kurye gelmedi kurye numarasini alabilirmiyim,-1
hesap açtım kartım gelmedi,-1
kurye neden kartımı getirmedi,-1
kurye neden kartımı geitrimiyo,-1
kartım nerede,-1
internet şifrem bloke oldu kartım da kayıp ne yapabilirim,-1
cep tlf gelen şifreyi kullanamıyorum,-1
cep telefonuma gelen şifreyi kullanamıyorum,-1
cepşifre hatalı,-1
cepşifre kullanamıyorum,-1
sms şifrelerim bana ulaşmıyor,-1
smsleriniz bana ulaşmıyor,-1
smslerinizi göremiyorum,-1
bankanızdaki iletişim numarasını güncellemek istiyorum,0
mobıl bacacılık sıftemı deyıstırmek ıdtıyorum nasıl yapabılırım,0
ihtiyaç kredisine başvurdum kısa zamanda başvurum kabul olurmu,0
para mı faize yatırmak istiyorum,0
hangi konularda yardımcı olabilirsiniz,0
günlük faiz oranınız nedir acaba,0
1 ay önce yaptığım kredi başvurum ne oldu kredi alabilirmiyim,0
müşteri numaramı bilmiyorum,0
kridi baş vuruşunda bulunacam yardımcı olurmusun,0
kredi istiyorum,0
vadeli hesap açmak istiyorum,0
kredi almak için ne yapmalıyım,0
yardmci olurmsunuz,0
krediye acil ihtiyacim var,0
ing hesabim var ancak mevduat icin en yuksek faizinizden faydalanmak istiyorum,0
bugün hesabıma para yatırdım ne zaman faiz alırım,0
kart şifresi belirleme,0
vadeli hesap açmak istiyorum,0
kart şifresi belirlememi istiyor kartımı yeni aldım,0
başvuru sorgulama,0
nasıl kredi cekebilrim,0
şifremi unuttum,0
merhaba ilk defa hesabimi acacagim,0
kredi kullanabilirmiyim,0
beko dan taksitle telefon almak istiyorum,0
telefon için kredi çekmek istiyorum,0
askerlik için kredi baş vuruşunda bulunmak istiyorumda,0
askerlik için kredi baş vuruşunda bulunmak istiyorumda,0
ordamısınız,0
ben telefon almak için başvuru yapmak istiyorum,0
kredi kartı başvuru,0
kredi faiz oranı nedir,0
şifre nasıl alırım,0
yaklasik 1000000 tele civarinda param var bunu degerlendirmek istiyorum bunun icin bilgi ala bilirmiyim,0
kredi,0
hesabım görmek istiyorum,0
kiredi,0
hesabımda paramı göre bilirmiyim,0
böyle bir kayıt bulunmadığını söyledi oysa doğru yazdım her şeyi,0
i̇nternetten hesap açtım kartım da geldi fakat üye olamıyorum şifre alamıyorum,0
tüm bilgileri giriyorum,0
şifre al menüsüne giriyorum,0
şifre almak için girdiğim bilgiler yanlış diyor,0
bilgilerimi doğru giriyorum hata veriyor,0
denedim fakat yanlış bilgi diyor,0
bu işlemi yapıyorum herhangi bilgide hata oluştu yazıyor,0
denedim fakat yanlıl bilgi diyor ama bilgilerim yanlış değil,0
kart şifresi alma,0
kart numarasını yanlış bilgisi veriyor şifre almam için,0
borç ödemek,0
teknosa dan telefon aldım borcumu nasıl ödemem gerekiyor,0
kart no hatalı diyor girdiğim heryerde,0
i̇nternet bankacılıgı giriş şifresi almak istiyorum nasıl alıcam,0
teknosa dan telefon aldım,0
şifre alamıyorum 2205 mesaj attım gelmedi cevap,0
şifre alamıyorum,0
sisteme giremiyorum,0
vadeli hesap limiti,0
sim bloke kaldıracağım ama kullanıcı kodu soruyor hatırlamıyorum,0
emekli maaşımı ing ye taşırsam alabileceğim promosyon tutarı nedir,0
maaş taşırsam alacağım promosyon,0
altın,0
dolar,0
ücretli oldugu icin hesabimda yeterli tl olmadigi icin oradan alamadim acil almam gerekiyor ne yapmaliyim,0
emeklilik maaşı promosyonunu öğrenmek istiyorum,0
bedelli,0
hosgeldin faizili hesap orani,0
e turuncu hesap açarken mai̇l adresi̇ni̇ sözleşmede başka gösteri̇yor ne yapabi̇li̇ri̇m,0
hasap açmak için yaş sınırı var mı,0
hesap açmak istemiyorum ininal ile ilgili bilgi almak istiyorum,0
sorguladım kabul oldu aranacakmışım,0
kaç yaşında turuncu hesap açabilirim,0
mevduat faiziniz ne kadar bir kac banka %20 veriyor,0
hazine bonosuyla ilgili bilgi alabilirmiyim,0
merhaba,0
neden kredi kullanamiypr,0
ihtiyac kredisi,0
canlı destek,0
qr kod ile para nasil çekerim,0
fakat şuan çalışmıyorum,0
yapilandirma devlet destekli̇ kredi̇,0
doğrulama kodu bilmiyorum yardım et,0
ing turuncu ekstra hesabı açmaya çalışıyorum,0
şifre  almak istiyorum,0
iyi akşamlar,0
72 aya noldu,0
doğrulama kodu,0
merhaba kredi başvurusu,0
çok yüksek,0
24,0
neden kiredi cekemiyorum,0
iyi akşamlar  tüketici kredi,0
öğrenciye kredi veriyorsunuz,0
turuncu hesap baska eturuncu baskami,0
ben ogrenciyim,0
kredi başvurusi,0
merhaba,0
merhaba,0
merhaba ben ininal kart kullanıcısıyım buradan kayıt olup farklı bir kart alabilirmiyim veya inşnal kartım üle giriş yapabilirmiyim,0
günlük pakete başvurmak istiyorum,0
hesap hareketlerimi göremiyorum,0
dask sigorta poliçe goruntuleme,0
i̇ng bank ev kredisi çekmiştim dask sigortam yenilendi poliçemi internet şubesi uzerinden goruntuleyebilirmiyim,0
kiredi almak istiyorum,0
ogrenciye kredi varmi,0
bulasik makinasi alicam kredi cikmadu,0
burdaki reklamda günün şartlarına göre paranızı değerlendirir diye bir yazı var mevcut piyasa şartlarında % 18 ila % 20 arasında faiz veriliyor benim,0
bankalarla hic isim olmasi simdiye kadar kiredi kullanamiyorum esnafim,0
ben ogrenciyim ve 1000tl krediye ihtiyacim var,0
i̇yi akşamlar,0
bodrum merkez ing nerede,0
yurt dışından 2000 euro param gelecekti hesabıma geçmedi,0
kredi çekmek istiyorum 3 aylik sigortam var,0
dolar kuru,0
acil esnaf kiredisi kullanmak istiyorum,0
kredi kart isdiyorum,0
kredimin onayını almak için telefonuma mı gönderilecek teşekkür ederim,0
hesap no ve şube kodunu öğrenmek istiyorum,0
e turuncu hesap açacagım,0
i̇htiyaç kredisi almak istiyorum,0
tek kullanımlık şifre,0
bedelli askerlik kredi konusu,0
selam,0
merhaba ben 48 ay vade ile kredi çekmek istiyorum,0
turuncu ekstra kartından nasil fatura öderim,0
ödemeyi 2 sene sonra yapabilir miyim,0
neden olumsuz,0
kredi çekmek istiyorum,0
gelirim yok kredi alabilir miyim,0
mevduat hesabı faiz oranları,0
vadeli hesap,0
2 sene sonra ödemeli kredi alabilir miyim,0
kredi değil,0
nasıl staj başvurusu yapabilirim,0
telefon numaramı güncellemek istiyorum,0
telefon numaramı değiştirdiğim için mobil uygulamaya giriş yapamıyorum bu sorunu nasıl giderebilirim,0
kredi başvuru sonucu istiyorum,0
sifre nasıl alacaz,0
şifre almak istiyorum,0
i̇lk defa şifre alacam nasıl alırım,0
basvurum onaylandiginda mesaj gelir mi,0
mevcut bir başvurunuz bulunmamaktadir diyor ama ben bu gün basvurdum,0
kat şifremi almak istiyorum,0
şifre alacktm,0
selam,0
bu gün başvurdum haftasonu olduğu icin basvurum görülür mu,0
iş başvurusunda bulunmak istiyorum,0
turuncu eksxtra karta başvuru yaptım ne zaman onaylanir,0
kredi kartımı kaybettim,0
ing musterisi degilim,0
ing kartim yok,0
acil kredi,0
banka kartimi aktive etmek istiyorum,0
kulanıcı adımı bilmiyorum,0
ama kayıt degilim,0
aylik ek ucret,0
nasıl şifre alırım,0
hesap isletim ucreti var mi,0
doviz kurlari nasil,0
benim banka kart şuan geçersiz olarak görünüyor çünkü internet üzerinden alış veriş yapmak istedim ama gecersiz,0
bu banka kart gecersiz,0
kaydolmak istiyorum,0
gunluk vadeli doviz hesabinda rakam olarak alt sinir nedir ,0
bireysel emeklilikten çıkmak istiyorum,0
kartımla alışveriş yapabilirmiyim,0
bireysel emeklilik beşten çıkmak istiyorum,0
kredi kartı istiyorum,0
merhaba,0
ben bes,0
hayir sanane,0
transformers oyuncaklar,0
benim otomatik krsilen,0
merhaba,0
sent robotmususn,0
bends tiki,0
turuncu ekstra kart limiti,0
personel kredi,0
turuncunet,0
kredi kartıma  ödeme nasıl yapacam,0
internetteyim,0
kredi kart para gönderecem,0
kart şifresi al,0
fakat kart numarası istiyor,0
şifremi unuttum,0
kredi karti almak istiyorum bankaya ait duzenli yatirilmis kredilerim var fakat olumlu yanit alamiyorum,0
kredi kartı başvurusunda bulunmak istiyorum,0
sizden mobil internetbankacılığı ile hesap açtım fakat mobil cep şifrem yok,0
tif numaramı değiştirmeyi düşünüyorum  internet bankacılığına girmekte sıkıntı yaşarmıyım,0
basvurumu yenilemek istiyorum,0
kredi baş vurum,0
kredi çekmek istiyorum,0
kıredikartıistiyorum,0
mevduat faiz oranlarini ögrenmek istiyom,0
merhaba ingbonus ile tek seferde yapılan harcamaya 50 tl bonus hediye ye katılım nasıl olur,0
model araç alacağım,0
merhaba,0
şifre istiyor ne yapmalıyım,0
mobil internet bankacılığı kullanıyorum şifremi unuttum,0
merhaba,0
merhaba,0
i̇htiyaç kredisi çekmek istiyorum,0
tek kullanımlık şifre istiyorum,0
merhaba bir mesaj geldi yatırım faizlerini yükselttik 90 gün boyunca hoş geldin faizinden yararlanabilirsin diye,0
şifremiunuttum,0
kartım yok o yüzden de,0
i̇nternet bankacılığı şifresi nasil alınır,0
kart numaramı bilmiyorum,0
çalışmıyorum hiç bi yerde ama,0
kıralik kasa hangi şubelerde var,0
şifre sms de ücret alınıyor mu,0
hibe olsa daha iyi,0
öyle değil,0
başka nasıl olabilir,0
para lazım abi,0
çıkmıyor,0
i̇htiyac kredisi çekmek istiyorum yardımcı olabilirmisiniz acaba,0
benim turuncu hesaptan nakit karta viran yapılmış,0
kredi notu mu öğrenebilirmiyim,0
kabul ediyurum uygun,0
kredi almak istiyorum,0
ben rica ederim,0
destek hesap 1000 tl alabilirmiyim,0
tm,0
oky,0
bana 2000tl lazım,0
mevcut bir başvurunuz bulunmamaktadır diyor,0
bunu nasil cozebilirim,0
kredi neden çekemiyorum ,0
yeni tlf ma ing mobil yukledim ama sifreyi giremiyorum cunku tr numarami burda kullanamiyorum,0
pardon,0
yurtdisindayim henk telefonie nog,0
sidre alamıyorum,0
personel ihtiyaç kredisi,0
kredi cekme imkanım varmı,0
daha önceden yasal takibe düşmüş kredi kartım var,0
merhaba,0
doviz kuru,0
cep telefonu para göndermek istiyorum,0
bu işlem yapılır mı ,0
kartim yok kayip,0
cep numaram degisti kayitli olani kullanmiyorum suan,0
cep şubesini kullanmak istiyorumfakat internet bankacılığı şifremi hatirlamiyorum,0
nezaman tamamlanir,0
cep telefonu numaramda degistigi icin,0
ing bank da nakit olarak ruble bozdurabılır mıyım ,0
giris yapicam fakat sifremi fln bilmiyorum sifre almak icinse kart numarasi soruyor ne yapmam gerek,0
benim hesap kartim kayboldu,0
kolay gelsin,0
telefon taksidini ödeme tarihini nasıl değiştirebilirim,0
kıredi alabilirmiyim,0
kredi başvurumu  öğrenecektim,0
şifre oluşturmak istiyorum,0
kartım henüz gelmedi ama şifre alıp işlem yapabilirmiyim,0
şifre alma,0
ilk kez sifre alicam alamiyorum,0
turuncu hesap açma başvurusuna devam edemiyorum lütfen şubeye gidiniz diyor,0
sifre alamiyorum,0
bulunmamaktadır diyor,0
başvuru yapamıyorum,0
müşteri hizmetleri,0
kart şifremi unuttum,0
daha önce aldım ve unuttum,0
ben kredi kullanmak istiyorum,0
kart şifremi bilmiyorum nasıl alabiliriö,0
vadeli hesap hakkında bilgi almak istiyorum,0
merhaba,0
adile hesap hakkında bilgi almak istiyorum,0
şuanki kredimi 3 ay erteleme şansım varmı,0
turuncu hesapta paran var yüzde 1330 görünüyor normalde faiz oranı daha yüksek değil miydi,0
kartım olmadan uygulamaya giriş yapamıyormuyum,0
kredi karti degil banka kartimin yenilenmesini istiyorum,0
benim ing hesabım var ama kartım yok,0
kart numarası gerekiyor mu mobil uygulamada,0
i̇ndirdim fakat kart numarası soruyor şifre için,0
bankadan hesap açtırmadan mobil uygulamayı kullanabilir miyiz,0
kredi notum nedir,0
baska nasil alirim sifreyi,0
merhaba! ben vadeli hesap actırıp biraz birikim yapmak istiyırum bu konuda müşteri hizöetşeriyle görüşmek ve bilgi almak istiyorum,0
ben bir banka hesabı açmak istiyorum,0
kontorum yok,0
kart sifremi unuttum,0
kredi notum düşük kredi cikarmi,0
kart basvuru,0
antalya korkutelı ılcesınde atm varmı ıng,0
kredi kartı almak istiyorum,0
turuncu extra sifre,0
tu4uncuextra,0
eturuncu faiz oranlariniz anasayfada %18 yazarken hesaplama araci sayfanizda %145 gorunmekte,0
eturuncu faiz oranlariniz anasayfada %18 yazarken hesaplama araci sayfanizda %145 gorunmekte,0
selamlar,0
internet bankacılığını kullanmak istiyorum,0
dolar,0
kart başvurusu,0
merhbaba,0
merhbaba,0
how do i change in settings to english language thank you,0
kırdı limitim nekadar,0
şifremi unuttun,0
ben kartımı aldım ama şifresini bilmiyorum nasıl şifre alıcam,0
kredi istiyorum kızıma telefon alıcam,0
telefon bankacılığı sistemine giriş yapamıyorum,0
hesap açmak istiyorum,0
şifremi yanlış girmemden dolayı kartımı bankamatikten geri alamadım ne yapmalıyım,0
limit nekadar olur,0
eskisehir merkez,0
kredi başvurusu nasıl yapalım,0
dolar ne kadar,0
eskisehir ing bankasi,0
ing hesabini buradan acmam mumkun mu,0
20000 tl cekmek istiyorum,0
kartımı internet alışverişine açmak istiyorum,0
daha önce ing hesabım vardı ama 1 yıl geçti yaniden yararlanabilirmiyim,0
eturuncu hesap açmak için başvurdum fakat bankamızın müşterisi olmanız sebebiyle kartınızı şubelerden alabilirsiniz diye bir uyarı mesajı aldım,0
tmm başvurdum ölümsüz diyor,0
mrb ben askerlik kredisi çekmek istiyorum,0
kullanıcı kodumu alacam,0
kullanıcı kodumu alabilirmiyim rica rtsem,0
kredi̇ karti midir,0
200000 euro yatirscaktim,0
turuncu ekstra banka kartimidir,0
otomatik ödeme talimatı için,0
merhaba,0
orada hangi menüye gireceğim,0
euro hesabi,0
bdn bankaniza euro yatirmak istiyordum,0
otomatik ödeme talimatlarımı nasıl görürüm,0
iyi günler,0
kıredi kıredipuanımyok kıkedicıkarmı,0
selamlar atacan ile görüşebilir miyim,0
e turuncu hesabim var fakat faiz oranini goremiyorum,0
ticari kredi karti istiyorum,0
i̇letişim,0
kartsiz para cekebilirmiyim,0
karışıklık oldu kabul etmiyor,0
olmuyor,0
başvuru sonucumu öğrenmek istiyorum,0
nasil yapabilirim tam bilmiyom,0
merhaba,0
merhaba kartim yok para cekmek istiyom,0
mortgage konut kredisi,0
şifre mi unuttum ve kart şifremi de tanımlamıştım ne yapabilirim,0
devrelerin yandı galiba,0
tamam şimdi ne olacak,0
cep telefon numaramı nasıl güncelleyebilirim,0
cep telefon numaramı nasıl degiştirebilirim,0
telefon numaramı nasıl güncelleye bilirim,0
telefon numaram farklı oldugundan yapamıyorum,0
yurtdışındayım hesaplar arasında para transferi yapacagım cep numaram degişti ve eski numaram burda kullanılmadıgından çep şifresi giremiyorum ne yapa,0
kredi notumu öğrenmek istiyorum,0
burhaniye veya edremitte atm var mı,0
ing bank turuncu ekstra kartım var ve mobil uygulamanızı nasıl kullanabilirim ,0
bu uygulamadan işlemleri gerçekleştirdim,0
ing frx de işlemle ilgili bilgi verirmisiniz,0
turuncu extra kart online başvurudu sözleşmeler kısmından sonraki sayfa yüklenmiyoo,0
online olarak dolar hesabı oluşturdum ancak kartım gelmedi,0
sisteme kayıtlı telefon numaramı değiştirmem gerekiyor,0
merhaba,0
yurt disinda yasiyorum ve turkiye de adres ve telefon numaram yok eturuncu hesap acmam mumkun mudur,0
kredi basvurum onaylanmişmi,0
kolay gelsin,0
merhaba,0
telefonumdan kart basvurusu yapamiyorum baska bir telefondan deneyiniz diyor,0
merhaba,0
kredi borcumu ogrenmek isitiyorum,0
mobil uygulama var ama hesabım görünmüyor,0
dolar kuru ne kadar,0
dolar nekadar,0
istekleeimizi soyleyebiliyor muyuz,0
ne yapmamlazım,0
telefon numarasına havale varmı ,0
cebe havale varmı ,0
cep numarasına havale varmı,0
cepbank para transferi mevcutmu,0
kolay gelsin,0
sikayetim isleme konuldu mu,0
kıredi baş vurusu yapmıştım sonuç gelmedi,0
merhaba müşteri hizmetlerinize bağlanmakta sıkıntı çekiyorum hat dusmuyo,0
merhaba banka kart şifremi unuttum,0
merhaba,0
kredi cikmiyor ama bana nakit lazim ne yapmam lazim,0
hesap numaramı öğrenmek istiyorum,0
cepbank araciligiyla nasil para gonderebilir,0
leasing şirket için para çekme,0
güvenlik kodunu giremiyorum,0
kısa yoldan nasil zengin olurum,0
kredim onaylandımı,0
ben nasıl zengin olurum,0
hava sicakmii,0
aşk konusunda dusuncen,0
konum gönderildi,0
mrb,0
kredi çekmek istiyorum,0
kiredi istiyorum,0
ama sigorta yok,0
beni taniyonmu,0
bedellı kredısı ıstıyorum,0
kredi faiz orani ne kadardir,0
benim alış,0
kimsin,0
beni seviyomusun,0
e turuncu hesabıma para yükledim faiz ne zaman hesabıma yüklenir,0
hollandanin neresinden,0
benimde devreleri yaktın ,0
tl hesabımı dolar çevirmek istiyorum,0
nerelisin,0
provizyon,0
kimsin,0
kredi kartı kaç günde çıkar,0
kredi sorgulamak istiyorum,0
benim bu bankada hesabim yok internetten acabilirmiyim,0
nakit,0
ihtiyaç kredisi almak istiyorum,0
ben taseronda calisiyorum da gelen eftnin dekontu olur mu,0
bana kredi ver,0
kiredi istiyorum,0
para kesilecek mi,0
eturuncu hesabıma para yatırırken veya para çekerken para kesimi olacak mı,0
eturuncu hesap açacağım anlamadıgım bir kısım var ben para yatırırken veya paramı çekerken benden bir miktar para kesimi olacak mı,0
iyi günler,0
kredi karti basvurusu,0
nasil sifre alicam,0
2000 tl ihtiyaç kredisi lazımdı bana ama olumsuz sonuclaniyor,0
daha önce onaylanan kredimi kullanabilir miyim,0
bir yıllık için hesap yaparmisin,0
benim şifre şekil di şimdi gidemiyorum,0
diğer bankalardaki kredimin ve kartlarımı ödeyip tek hesap altında borçlanmak istiyorum,0
daha önce hiç bi bankadan kredi veya kerdi kartı almadım,0
web den eturuncu hesap başvurusu yapamıyorum,0
merhaba kredi kullanmak istiyorum zamanım olmadığından bankaya gidemiyorum bana yardımcı olurmusunuz,0
ben ihtiyaç kredisi başvurusunda bulunmuştum da,0
kredi kartim yok kredi alamıyorum,0
nasıl olcak,0
kredi kartı yok kredi vermiyorsun,0
internet bankacılığı şifrem bloke oldu ne yapmalıyım,0
90 bin tl turuncu hesap vadeli faiz ne kadar,0
fast track hakkında bilgi almak istiyorum,0
peki orta riskli de kredi alabilirmiyim ben şuan hesabım yok ing de,0
kırediye isyiyom,0
turuncu ekstra kart istiyorum,0
ozaman konut kredi faiz oranı kaç,0
amerika da anlaşmalı olduğunuz bir banka var mi,0
alabilir miyim,0
kredi notuna göre kredi,0
siirt şube kodu kaç,0
anlaşmalı olduğunuz bir banka var mı,0
bireysel ihtiyaç kredisi almak istiyorum ama kredi notu orta riskli de şuan alabilirmiyim,0
siirt şube kodu,0
amerika da bir bankaya havale yapmak istiyorum,0
turuncu ekstra kart,0
merhaba ihtiyaç kredisi alacam yardımcı olur musunuz,0
kredi kartı,0
kredi kartı başvusu yapiyorum bilgileri doğru girdığimden eminim onaykodunuzu yanlıs girdiğim söyleniyor nasıl baş vurabilirim,0
bu numaraya  mesaj gelsin 05453130394,0
şifre alamıyorum,0
bankamati̇kten  350 olarak ödedi̇m,0
kullanıcı kodumu nereden öğrenebilirim,0
kredi lazım vercenmi,0
diğer numara yok,0
alamıyorum,0
mobil uygulamsını indirdim,0
ing günlük pakete başvurmak istiyorum,0
kolay gelsin basvurularimi nerden gorebilirim,0
ya artık arayıp net cevap verirmisiniz,0
ıng mobil şifresi almak istiyorum,0
bakiyem olmadigi icin bu islemi yapamiyorum,0
iyigünler 5000 tlyi pttden çekebilirmiyim   ben   emekliyim,0
hesap karti sifresi almak istiyorum,0
i̇yi günler dün e turuncu hesap için başvuru yapmıştık hoşgeldin faizinden yararlanmak için bugün turuncu ekstra kart geldi kurye ile,0
ben bes milyar istiyorum acaba olurmu,0
olması gerekir bköy subesinde,0
olabilirmi,0
özel bankacılık avantajları nedir,0
soruma yanlış cevap veriyorsun,0
i̇ng özel bankacılık nedir,0
i̇ng özel bankacılık nedir,0
merhaba,0
tüketici kiredisi,0
vadeli hesap acmak istiyorum tl üzerinden 70 bin tl,0
musteri temsilcisi numarasi,0
merhaba faiz oranini ogrenebilir miyim,0
