yorum,Positivity
Çok teşekkür ederim çok yardımcı oldun,1
çok sağol,1
çok iyisin ingo,1
süpersin,1
Kolay gelsin iyi aksamlar,1
teşekkür ederim,1
teşekkürler,1
Love,1
Teşekkürler,1
Sizede tsklr,1
çok tatlısın,1
komiksin,1
eğlencelisin ha,1
çok yardımcı oldun çok sağol,1
çok başarılısınız,1
süpersiniz,1
bankacılık budur,1
iyi banka tabiki ing,1
çok zekisin,1
Eyvallah bro,1
Oo reis cok hizlisin eyvallah,1
kardom mükemmelsin,1
helal,1
çok memnun kaldım,1
çok mutlu oldum,1
mutlu ettiniz teşekkürler,1
reis süpersin,1
knki çok sağol,1
teşekkür ederim,1
iyi banka sizsiniz,1
aslansın,1
süper bankasınız,1
adamsın,1
allah razı çok yardımcı oldun,1
Nasil kredi alabilirim sizinle çalişmak istiyorum,1
nasıl müşteri olurum,1
nasıl müşteriniz olurum,1
müşteriniz istiyorum,1
müşteri için yapmalıyım,1
müşteriniz için yapmalıyım,1
müşteriniz olmicam müşteris olcam,1
müşteriniz olmayacağım müşterisi olacağım,1
sizinle çaşılmak istiyorum,1
birlikte çalışalım,1
gelin beraber çalışalım,1
ingocum çok teşekkürler,1
cansın can,1
ingocum sağol,1
çok teşekkürler,1
süper,1
harika,1
bi inglisin,1
seviyorum,1
memnunum,1
memnunun,1
allaha emanet ol,1
maşallah,1
yuppi,1
aeo,1
oley,1
holley,1
olley,1
efsane,1
efffsaaaneeee,1
efso,1
kaplansın,1
kredim onaylandı teşekkür ederim,1
kredim onaylandı çok teşekkür ederim,1
kredim onaylandı çok sağolun,1
kredi kartı başvurum onaylandı çok teşekkürler,1
kartım geldi çok teşekkür ederim,1
kartım geldi çok sağolun,1
mevuat faizlerinin çok iyi,1
hoş geldin faizinin çok iyi,1
ay ek faiz aldım çok iyi geldi,1
hoşgeldin faizini çok seviyorum,1
akıllısın,1
Şimdi hesap açmak istiyorum bankanızda,1
Hesap açmak istiyorum,1
Nasıl e- turuncu hesap açabilirim,1
pegasus kart istiyorum,1
pegasus card istiyorum,1
pegasus classic card istiyorum,1
pegasus klasik kart istiyorum,1
pegasus classic kart istiyorum,1
pegasus premium kart istiyorum,1
pegasu premium card istiyorum,1
müşteri istiyorum,1
nasıl müşteriniz olacağım,1
kredi kullanmak istiyorum,1
ev kredisi istiyorum,1
turuncu hesap açmak istiyorum,1
turuncu hesap açmak istiyorum,1
turuncu hesap istiyorum,1
turuncu hesap istiyorum,1
turuncu ekstra istiyorum,1
turuncu ekstra kart almak istiyorum,1
turncu ekstra kart nasıl alırım,1
bankanızdan çok memnunum,1
sizinle çalışmak çok güzel,1
sizinle çalışmak istiyorum,1
kobiyim pos istiyorum,1
kobiyim sizinle çalışmak istiyorum,1
emekliyim maaşımı almak istiyorum,1
aylığımı almak istiyorum,1
emekli aylığımı almak istiyorum,1
sigorta istiyorum,1
sigorta yaptırmak istiyorum,1
vadeli hesap açmak istiyorum,1
merhabalar,1
merabalar,1
selamlar,1
merhabalar nasılsın,1
merhabalar nasılsınız,1
merabalar nasılsın,1
merhabalar nasılsın,1
selamlar nasılsın,1
selamlar nasılsınız,1
iyi günler,1
iyi akşamlar,1
günaydın,1
günaydınlar,1
Kolay gelsin iyi aksamlar,1
hayırlı işler,1
allah işini rast geitrsin,1
allah bereket versin,1
iyi doğdun ingo,1
iyi doğdun,1
şube çalışanlarınızdan çok memnunum,1
bankacılık budur,1
yapay zeka budur,1
çok iyi yapmışlar,1
çok akıllısın,1
çok iyisin,1
mevduat faizlerinz yüksek,1
vadeli hesap faizleriniz yüksek,1
turuncu ekstra çok karlı,1
hesap açmak istiyorum,1
Kredi kartı başvurusu,1
Bana kredi olumlu sonuç verdi,1
Nasil hesap acabilirim,1
Turuncu hesap açtırmak istiyorum,1
Turuncu ekstra kart istiyorum,1
Vadeli hesap acmak istiyorum ayni zaman banka karti internet alos verisi istiyorum,1
Vadeli hesap nasıl açarım,1
Nasılsınız,1
Kredi karti almak istiyorum,1
çok teşekkür ederim iyi günler,1
yeni reklamınızı çok beğendim çok güzeldi,1
yeni tv reklamınız çok başarılı,1
tv reklamınız çok başarılı,1
yeni kampanyanız çok başarılı,1
müşteri dostu bankasınız,1
hizmetinizden çok memnunum,1
hizmetinizden çok memnun kaldım,1
çok memnunum,1
bankanız hizmetlerinden çok memnunum,1
çok kibarsın,1
çok kibarsınız,1
çok kibarsın ingo,1
mizahşörsün be ingo,1
mizahşörsün ha,1
mizahını sevdim,1
evlen benimle,1
evlen benle,1
sevgilim ol,1
seviyom,1
iyisin,1
süpersin,1
işlemim çok hızlı gerçekleşti teşekkür ederim,1
çok hızlıydı teşekkür ederim,1
eftem hemen gerçekleşti çok teşekkürler,1
Hesap acma,1
Kıredi başvuru yakmak istiyorum,1
Nasil hesap acabilirim,1
iyi banka ing,1
iyi banka ing bank,1
ing candır,1
ing bank candır,1
ing bank iyidir,1
ing bank tan memnunuz,1
ing den memnunum,1
Neden,0
nasil emin olacaz,0
kiralık kasadan başka şey bilmez misin,0
Neden kredi basvurum olumsuz,0
Kredi başvurusu yaptım emekliyim bankanız olumlu yanıt vermedi,0
Kuşadası ing bank müdürü hakkında müşteri hizmetleri bölümüne yazdığım şikayet yazısına cevap alamadım,0
Sürekli tc numaramazı özel bilgilerimizi paylaşıyoruz.nekadar güvenli,0
Birdahada asla basvuru yapmam,0
hata veriyor giremiyorum,0
Am,0
Sokuk,0
Basvuru yaptim basvuru sorgulamamda yok gorunuyor,0
Bn 2 saat once maaş kartı aldim sifre gelmedi,0
Bana dönüş yapılmadı,0
KAYITLI TELEFONUM SİLİNMİŞ,0
SİSTEMDE KAYITLI TELEFONUM SİLİNMİŞ,0
Bunu bende biliyorum,0
turuncu hesap baş vurum için henüz cevap alamadım. Ayrıca adres güncellemesi istiyorum..!,0
ananizin ami,0
Ne demem gerekiyor nasıl konuşmam gerekiyor yeterince açık değilmi,0
Yanıt vermiyorsunuz,0
Niye yanıt yok,0
Vermiyorsunuz,0
Alamıyom,0
cevap alamıyorum,0
cevap yok,0
sus artık,0
hiçbi bok bilmiyosun,0
allah belanı versin,0
mal,0
gerizekalı,0
çok salaksın,0
hiçbişi bilmiyosun,0
hiçbirşey bilmiyosun,0
beceriksizsin,0
soruyorum soruyorum cevap yok,0
yazıyorum yazıyorum cevap yok,0
Anlatamıyorum galiba,0
E turuncu hesaba nasıl sahip olurum,0
Başvurunuz bulunmamaktadır diyo başvurduk onaylandı dedi,0
Basvuruyorum olumsuz yanıt veroyorlar,0
tama abi kalmadı yanı kopyala yapıştır ayıptır yaa,0
Aynı soruları soruyorsunuz,0
Yaptım kabul etmıyo,0
şifre alamıyorum,0
alt tarafı 1000 liralık vade hesaplayacaksınız,0
Şifre almakta sorun yaşıyorum,0
Sorun yasıyorum,0
amk,0
giriş yaptigimda eski telefon numarama sms atiyo,0
Kredi kullanmak isdiyorum,0
kredi ceke bilmem için yapmam gerekiyor,0
cep şifre almak istiyorum,0
boşverin,0
off,0
Beyinsizler,0
çok saçma bankasınız,0
Beni dinlemiyormusun,0
Fu** you,0
Bana bak şimdi,0
Shut up,0
çok başarısızsın,0
iğrençsin,0
hiç yardımcı olmadınız,0
sizinle çalışmak istemiyorum,0
biçim faiz oranı,0
faizleriniz çok yüksek,0
salak salak konuşuyosun,0
biçim sorular,0
salak salak konuşuyosun,0
aptal mısın,0
abv,0
böyle saçmalık görmedim,0
baya baya aptalsın,0
böyle ai mı,0
nasıl yapay zeka,0
hiçbi boktan anlamıyosun,0
boşa zamanımı harcadın,0
faydasızsın,0
bi sike derman olmadın aq,0
yarram,0
yaralı parmağa işemezsin,0
kafa sikiyosun,0
sus aq,0
işlem zor,0
nasıl banka,0
nasıl dijitallik,0
hoş değil,0
sıktın,0
bi siktir git,0
konut eşya sormadım kı,0
Kredi almak bukadar zor,0
"hee diyorum ankara, diyosun gümüşhane anladım ????",0
Niye dürüslere banka calışmayalım karverin bari,0
turuncu hesabima faiz getirisi yansımamış,0
Ancak şifre vs yok. 2205'ten şifre almaya çalıştığımda,0
Başvuruyu kabul etmiyor,0
Bende iş bankasından alirim,0
kartım calismiyor,0
yeter artık,0
hiç yardımcı olmuyosun,0
Bundan maaşını bankanizdan almiyacagim,0
dolar al sat arasindaki makas cok fazla bankada?,0
Cep şifre alamıyorum,0
şifre alcam kartıkm yok,0
şifre unuttum kart numarası istiyo,0
şifre alacağım kartım yok,0
şifre alacağım kredi kartı numarası istiyor kartım yok,0
müşteri tesmsilcisine bağlanamıyorum,0
kredi çıkmıyor,0
kredi kartı vermiyorsunuz,0
türlü şifre alamıyorum,0
nasıl banka,0
bisey soruyorum,0
bişey soruyorum,0
birşey soruyorum,0
Krediye baş vuruyorum olumlu netice alamiyorum,0
Neden telefon numaramla kart basvurusu yapamiyorum?,0
Daha ing kartım gelmedi bulunduğum yerde şube yok nasıl para çekebilirim,0
zaman aktivasyon kodu istiyor uygulama,0
Kart çalışamıyorum,0
merhaba krdi çekmek istiyorum olmuyor ?,0
kredi çekmek istiyorum olmuyor,0
kredi çıkmıyor,0
kredi çıkmıyor,0
kredim onaylanmıyor,0
kredim onaylanmıyor,0
skorum yüksek kredi çıkmıyor,0
skorum yüksek kredi çıkmıyor,0
KKB kredi notum yüksek kredi çıkmıyor,0
KKB kredi notum yüksek kredi çıkmıyor,0
KKB kredi notum yüksek kredi çıkmıyor,0
kredi kartı kullanmıyorum kredi vermiyorsunuz,0
kredi notum düşük,0
kredi kartı vermiyorsunuz,0
düzenli gelirim kredi alamıyorum,0
düzenli gelirim olmasına rağmen kredi çıkmıyor,0
düzenli gelirim kredi kartı çıkmıyor,0
düzenli gelirim olmasına rağmen kredi kartı çıkmıyor,0
ihtiyaç kredisi çıkmıyor,0
konut kredisi çıkmıyor,0
taşıt kredisi çıkmıyor,0
düzenli gelirim ihtiyaç kredisi alamıyorum,0
düzenli gelirim konut kredisi alamıyorum,0
düzenli gelirim taşıt kredisi alamıyorum,0
memurum kredi çıkmıyor,0
memurum kredi kartı çıkmıyor,0
emekliyim,0
puştmusun,0
puşt musun,0
orospu çocuğu,0
tavuk sikiyonuz,0
şikayetim,0
bi şube çalışanınızla igili şikayetim,0
kartımı atm yuttu,0
kartım gelmedi,0
ekstrem gelmedi,0
atmde param kaldı,0
paramı atmde unuttum,0
yakınımda hiç atm yok,0
yakınımda hiç şubeniz yok,0
atm sayınız,0
hiçbir yerde atm yok,0
Kartım zaman gelecek,0
Kredi çekmek istiyom ihtiyaç,0
Hesabıma para geçmesi gerekiyordu,0
Beni dinliyor musunuz,0
Ordamısınız,0
telefon bankacılığına giremiyorum,0
mobile giriş yapamıyorum,0
mobil bankacılığa giremiyorum,0
login olamıyorum,0
Adresim kabul edilmiyor,0
giriş yapamiyorum bildigim sifreyle,0
yanlış bilgi diyor,0
Kredi kartı istiyorum bir. Hesap değil,0
giriş yapamiyorum,0
olmuyor,0
Ya ismim cikiyormu sorgulama yapıyorum olmuyor,0
denedim olmuyor esin ek kartini kullaniyorum hes,0
Başvuruyu yaptıktan farklı numara deneyin diyor,0
giriş icin cep şifre alamiyorum,0
Merhaba telefon numaram bonuscard başvurusunda bulunamıyorum nedeni nedir,0
İng bankasın çok sorumsuz olmus,0
sorumsuzsunuz,0
nasıl iş ahlakı,0
ciddiyetsizsiniz,0
nasıl bankacılık,0
dijitalim geçiniyosunuz,0
dijitalim geçiniyorsunuz,0
Kredim değerlendirelememiş neden?,0
Bankamatik kartım henüz gelmedi,0
kiredi kartımı yapilandirdim tüm borcumu ödedim kartım açılmadı,0
Neden ing den kıredi alamuyom,0
kredi kartı almak nu zor,0
hiçbirşey bilmiyorsun,0
hiçbişi bilmiyorsun,0
Başvurum görünmüyor,0
Internet şifrem yok,0
Ben ing bank yeni olduğum için kartım bugün geldi kartın şifresini biliyorum nede mobil bankacılıktan şifre alabiliyorum hiç alamıyorum,0
Para yatiramiyorum,0
Trabzon şubesi ATM bozuk,0
ATM bozuk,0
kullanici kodunu fln bilmiyorum,0
Kart başvurusu yapıyorum lütfen başka numarayla yapın diyor,0
İş yeri telefonu yok yapalirim,0
telefona link gönderemezmisiniz,0
Internetten vadesiz hesap actim sozlesmem elime ulasmadı,0
mobil giriş yapamıyorum,0
Turuncu hesap acilmiyor,0
Turuncu hesap acamiyorum,0
bileyim nasıl,0
Niçin kredi çıkmadığını öğrenmek istiyorum,0
Şubeyle bitürlü iletişim kuramıyorum.mardin,0
Annen,0
ing maaş kartım gelmedi hafta sonu nasıl para çekicem,0
Buradan hattim degistigi icin ogrenemiyorum hata veriyor,0
İngo provizyonda bekleyen 65 tl neyin necisi,0
Alış satış kuru arasın çok fark,0
Sorumun cevabını alamadım,0
soruma cevap vermiyosun,0
sorularıma cevap vermiyorsun,0
sorumun cevabı,0
nasıl cevap,0
böyle cevap mı,0
böyle iş,0
Mobil şifremi unuttum yanimda kartım yok,0
Katım yanımda yok,0
Kredi başvurdum olumsuz,0
aynı şeyleri tekrarlıyorsun sürekli,0
tekrara düşüyosun yalnız,0
tekrara düşüyorsun yalnız,0
tekrara düşüyosun yanlız,0
tekrara düşüyorsun yanlız,0
kartım yanımda yok,0
kartım yanımda değil,0
nasil ismis kredi kartim yok,0
dogrulama kodunu kabul etmiyor,0
doğrulama kodu yanlış,0
doğrulama kodu hata veriyor,0
uygulama hata veriyor,0
mobil uygulama hata veriyor,0
Kart numarasımı bilmediğim için giriş yapamıyorum,0
Talebinize suan yanit verilememektedir. diyor,0
Merhaba. Turuncu turuncu hesap açmak istiyorum açamıyorum,0
Ama hiç hesabim yok,0
Devam butonu basmıyor,0
Kartım kırıldı ayni gun yenilenirmi,0
Reklamlarda yüksek faiz taahüt ediyosunuz reelde böyle değil,0
Reklamda faizler yüksekti,0
Neden büşük faizden hesaplıyosunuz,0
Kredi kartım alışverişe kapatıldı mı ?,0
Kredi kartımı kullanamıyorum nedenini öğrenebilir miyim ?,0
Hesap actim kurye gelmedi kurye numarasini alabilirmiyim,0
hesap açtım kartım gelmedi,0
kurye kartımı getirmedi,0
kurye kartımı geitrimiyo,0
kartım,0
internet şifrem bloke oldu. kartım kayıp yapabilirim,0
Cep tlf gelen şifreyi kullanamıyorum,0
cep telefonuma gelen şifreyi kullanamıyorum,0
cepşifre hatalı,0
cepşifre kullanamıyorum,0
sms şifrelerim ulaşmıyor,0
smsleriniz ulaşmıyor,0
smslerinizi göremiyorum,0
sürekli bildirim gelmesinden sıkıldım,0
çok fazla push yolluyorsunuz,0
yetti bildirim yollanmaz,0
Sikerim,0
Başıma gelecek sorunlardan sorumlusunuz,0
bunların sorumlusu sizsiziniz,0
sorumlu sizsiniz,0
işin sorumlusu sizsiniz,0
Ama hesabima giriyorum,0
hesabıma giremiyorum,0
hesabıma giriş yapamıyorum,0
sms kodlarim gelmiyor,0
Ben hesaba giremiyom şifreyi yazmama ragmen,0
Doğrulama şifresi telefonunuza gönderildi diyor gelmedi,0
Qr kod atm den para cekeniyorum,0
QR kod para çekemiyorum,0
QR kod atmden para çekemiyorum,0
para çekemiyorum,0
QR kod para çekilmiyor,0
paramız yatmıyor,0
para elime ulaşmadı,0
eft işlemim gerçekleşmedi,0
havale işlemim gerçekleşmedi,0
para transferi yapamıyorum,0
para transferi yapamıyorum,0
eft olmuyo,0
eft olmuyo,0
havale olmuyo,0
havale olmuyor,0
havale olmuyor,0
eft olmuyor,0
maaşım yatmamış şirketim ay verdiyi yatmiyor,0
maaşım ödemem gecikiyor,0
maaşım yatmıyor,0
paramı verin köpekler,0
verin paramı,0
faiz oaranı düşük,0
merhaba banka musterisiym kredi verilmiyor,0
kredi verilmiyor,0
banka müşterisi olduğum kredi verilmiyor,0
kart ım yok,0
şifrem bloke edıldı,0
Ben çok sıkıldım ihtiyaç kredisi nasıl alabilirim,0
Siz haber gonderemiyor musunuz bunlara,0
ing bank atm sinde kartım sıkıstı,0
ilk girişi yapamıyorum,0
Kimse telefona cevap vermiyor,0
çağrı merkezinde yok,0
telefonlara çıkmıyor,0
sürekli bekletiyorsunuz,0
beklemekten sıkıldım,0
çok bekletiyosunuz,0
"Merhaba, başvurduğum destek hesap talebim reddedildi. Sebebi nedir?",0
İnternet bankaciligina giris yapamiyom,0
Dogrulama kodu yanlıs yaptınız denıyo,0
limit göremiyorum,0
kredi limitimi göremiyorum,0
kart limitimi göremiyorum,0
limitimi artıramıyorum,0
müşteri limitimi göremiyorum,0
müşteri limitimi artıramıyorum,0
kiredi cekme istiyorum olmuyor bi turlu,0
kart şifresini değil internet bankacılığı şifremi unuttum,0
başvurduğum başvurunuzu bulunmamaktadır diyor,0
başvuru yaptığım başvurunuzu bulunmamaktadır diyor,0
Adres kabul etmiyor,0
Adresde sıkıntı çıkarıyor,0
Ing mobil uygulamasini kapatmak istiyorum.,0
Internet bankaciligimi kapatmak istiyorum.,0
Destek hesap nasıl iptal edilir,0
Kredi başvuruma onay verilmiyor,0
kartsız şifre almak istiyorum,0
kartsız şifre alınmıyor,0
kartım yok numarasını nasıl bilebilirim,0
saçmalık,0
aptal aptal sorular,0
"Soru sordum, farkındasınız değil mi?",0
e-turuncu faiz oranlarını zaman güncellemeyi düşünüyorsunuz?,0
Giriş yapamıyoruz,0
Şifremiz yok,0
İlk koulanıyorum giriş yapamadım,0
olmamış,0
böyle chtabot olmaz,0
böyle AI mı,0
böyle AI olmaz,0
nasıl ai,0
yapay zeka mı şimdi,0
yapay zekamı şimdi,0
Bütün şeyleri yaziyom başvuru yapamiyom,0
Bilgileri giriyorum şifre geliyor sorun bildiriyor,0
Kardesim ing bankasinda hesabim yok,0
Mal misiniz,0
Eft işlemi yaptım karşı tarafa ulasmamis,0
Bu nasıl bankacılıktır,0
Defol git hizmetmiş cevap veriyorsunuz,0
Kaşarlar,0
Şerefsizler,0
Kartım geldi işlem yapamıyorum,0
Yeni kartımla işlem yapamıyorum sebebi nedir,0
Yeni kart aldım fakt işlem yapılamıyor,0
Yeni kartım işlemlere kapalı,0
kartım işlemlere kapalı bi sorun,0
kartsifremi alamadım,0
Cok kotuyum bankaniz deli,0
Neden kredi konusunda yardımcı olmuyor,0
Yani mobil şifremi nasıl alacam,0
Başvurum olacak şimdi,0
Neden olumsuz,0
Maaş hesabım Mobil uygulama görünmüyor,0
bankanızdan memnun kalmadım,0
hizmetten memnun kalmadım,0
memnun kalmadım,0
konut faizleri çok yüksek,0
kredi fazileri çok yüksek,0
kredi faiz çok yüksek,0
